<?xml version="1.0"?>
<svg id="svg2"
             version="1.1"
             xml:space="preserve"
             width="40"
             height="40"
             viewBox="0 0 653.63751 687.63751"
             xmlns="http://www.w3.org/2000/svg"
             xmlns:rdf="http://www.w3.org/1999/02/22-rdf-syntax-ns#"
             xmlns:cc="http://creativecommons.org/ns#"
             xmlns:dc="http://purl.org/dc/elements/1.1/">
  <metadata id="metadata8">
    <rdf:rdf>
      <cc:work rdf:about="">
        <dc:format>image/svg+xml</dc:format>
        <dc:type rdf:resource="http://purl.org/dc/dcmitype/StillImage"/>
      </cc:work>
    </rdf:rdf>
  </metadata>
  <defs id="defs6"/>
  <g id="g10" transform="matrix(1.25,0,0,-1.25,0,687.6375)">
    <g id="g12" transform="scale(0.1,0.1)">
      <path d="M 55,2.89844 C 22.9883,2.89844 0,28.8398 0,60.8516 L 0,1022.93 c 0,32.02 22.9883,57.96 55,
        57.96 32.0117,0 55,-25.94 55,-57.96 L 110,60.8516 C 110,28.8398 87.0117,2.89844 55,2.89844"
            style="fill:#000;fill-opacity:1;fill-rule:nonzero;stroke:none"
            id="path14"/>
      <path d="m 1627.4,849.07 c -107.49,0 -207.4,-57.582 -237.4,-125.14 l 0,67.179 c 0,32.012 -32.99,
        57.961 -65,57.961 -32.01,0 -65,-25.949 -65,-57.961 l 0,-730.2574 c 0,-32.0118 32.99,-57.95316 65,
        -57.95316 32.01,0 65,25.94136 65,57.95316 l 0,425.6284 c 0,18.911 19.83,71.879 54.74,125.02 53.03,
        80.719 111.48,121.648 179.66,121.648 32.01,0 59.46,25.954 59.46,57.961 0,32.012 -24.44,57.961 -56.46,57.961"
            style="fill:#000;fill-opacity:1;fill-rule:nonzero;stroke:none"
            id="path16"/>
      <path d="m 2578.08,138.539 c -22.61,22.641 -59.33,22.641 -81.95,0 -24.13,-24.129 -81.67,-29.211 -123.7,
        -11.777 -27.94,11.57 -82.43,42.797 -82.43,121.988 l 0,485.332 189.15,0 c 32.01,0 57.96,27.977 57.96,
        60 0,32.008 -25.95,60 -57.96,60 l -189.15,0 0,168.848 c 0,32.02 -22.99,57.96 -55,57.96 -32.01,0 -55,
        -25.94 -55,-57.96 l 0,-168.848 -106.55,0 c -32.01,0 -57.95,-27.992 -57.95,-60 0,-32.023 25.94,-60 57.95,
        -60 l 106.55,0 0,-485.332 c 0,-105.488 59.39,-191.1289 151.02,-229.0898 30.9,-12.78911 65.97,
        -18.988325 97.88,-18.988325 56.45,0 111.5,19.386725 148.01,55.917925 22.64,22.6211 23.81,59.3202 1.17,
        81.9492"
            style="fill:#000;fill-opacity:1;fill-rule:nonzero;stroke:none"
            id="path18"/>
      <path d="m 705.969,118.809 c -169.375,0 -307.168,137.8 -307.168,307.171 0,169.379 137.793,307.168 307.168,
        307.168 132.554,0 266.308,-94.976 266.308,-307.168 0,-212.191 -133.754,-307.171 -266.308,-307.171 z M 1030,
        849.07 c -32.012,0 -50,-25.949 -50,-57.961 l 0,-53.39 C 900,807.781 816.402,849.07 709.832,849.07 476.547,
        849.07 284.816,659.27 284.816,425.98 284.816,192.691 477.512,2.89844 710.797,2.89844 817.367,2.89844 900,
        44.1797 980,114.25 l 0,-53.3984 c 0,-32.0118 17.988,-57.95316 50,-57.95316 32.01,0 50,25.94136 50,
        57.95316 l 0,730.2574 c 0,32.012 -17.99,57.961 -50,57.961"
            style="fill:#000;fill-opacity:1;fill-rule:nonzero;stroke:none"
            id="path20"/>
      <path d="m 3063.29,733.148 c -150.05,0 -275.31,-108.148 -301.94,-250.566 126.44,0.289 533.54,1.219 600.64,
        1.219 1.18,0 2.2,0.051 3.07,0.097 -27.16,144.243 -153.83,249.25 -301.77,249.25 z m 0,-730.24956 C 2830,
        2.89844 2640.2,192.691 2640.2,425.98 c 0,233.29 189.8,423.09 423.09,423.09 204.58,0 379.62,-145.879 416.23,
        -346.879 4.71,-25.859 0.81,-64.152 -24.22,-94.152 -15.28,-18.32 -43.89,-40.148 -93.31,-40.148 -67.04,
        0 -473.45,-0.93 -600.12,-1.219 27.71,-141.102 152.33,-247.863 301.42,-247.863 68.92,0 134.03,22.293 188.29,
        64.453 25.27,19.66 61.68,15.09 81.32,-10.184 19.65,-25.269 15.09,-61.68 -10.19,-81.3163 C 3247.93,
        33.6211 3158.22,2.89844 3063.29,2.89844"
            style="fill:#000;fill-opacity:1;fill-rule:nonzero;stroke:none"
            id="path22"/>
      <path d="m 3984.65,2.89844 c -233.29,0 -423.08,189.79256 -423.08,423.08156 0,233.29 189.79,423.09 423.08,
        423.09 111.11,0 216.08,-42.75 295.56,-120.371 22.9,-22.359 23.34,-59.051 0.97,-81.949 -22.36,-22.898 -59.05,
        -23.352 -81.95,-0.969 -57.7,56.34 -133.9,87.367 -214.58,87.367 -169.38,0 -307.17,-137.789 -307.17,-307.168 0,
        -169.371 137.79,-307.171 307.17,-307.171 89.38,0 174.17,38.851 232.63,106.582 20.93,24.23 57.52,26.898 81.75,
        5.988 24.23,-20.91 26.91,-57.508 6,-81.75 C 4224.53,56.3789 4107.75,2.89844 3984.65,2.89844"
            style="fill:#000;fill-opacity:1;fill-rule:nonzero;stroke:none"
            id="path24"/>
      <path d="m 5227.87,221.988 c -0.78,67.75 -1.57,137.813 -1.57,203.992 0,253.059 -148.74,423.09 -367.13,
        423.09 -120.88,0 -239.17,-51.039 -309.17,-132.609 l 0,306.469 c 0,32.02 -27.99,57.96 -60,57.96 -32.01,
        0 -60,-25.94 -60,-57.96 l 0,-962.0784 c 0,-32.0118 27.99,-57.95316 60,-57.95316 32.01,0 60,25.94136 60,
        57.95316 l 0,365.1284 c 0,169.379 139.79,307.168 309.17,307.168 120.47,0 250.21,-80.699 250.21,-307.168 0,
        -66.839 1.31,-137.242 2.08,-205.3 0.68,-59.621 1.57,-115.942 1.57,-162.7191 C 5113.03,25.9414 5139.1,
        0 5171.11,0 c 32.01,0 58.02,25.9414 58.02,57.9609 0,47.4491 -0.58,104.0781 -1.26,164.0271"
            style="fill:#000;fill-opacity:1;fill-rule:nonzero;stroke:none"
            id="path26"/>
      <path d="m 1839.17,117.23 0,-0.07 0,0.07 z m 0,-115.98 c -63.91,0 -115.92,52 -115.92,115.91 0,63.91 52.01,
        115.91 115.92,115.91 63.91,0 115.91,-52 115.91,-115.91 0,-63.91 -52,-115.91 -115.91,-115.91"
            style="fill:#000;fill-opacity:1;fill-rule:nonzero;stroke:none"
            id="path28"/>
      <path d="m 2649.97,2766.58 c 18.14,-27.63 45.96,-45.85 78.3,-52.56 32.4,-6.72 65.43,-0.61 93.05,17.55 56.99,
        37.45 72.91,113.93 35.46,170.94 -23.72,36.13 -63.28,54.19 -103.6,54.19 -71.51,0 -110.68,-51.79 -120.96,
        -98.58 -7.08,-32.28 -0.4,-63.92 17.75,-91.54 z m -396.86,554.11 c -16.71,-76.19 -2.29,-154.58 40.61,
        -220.75 42.66,-65.76 107.77,-111.3 183.87,-128.98 23.91,48.82 60.5,90.56 107.13,121.18 141.56,92.95 332.45,
        53.47 425.43,-88.1 93.01,-141.61 53.47,-332.46 -88.09,-425.45 -50.72,-33.3 -108.78,-50.54 -168.05,
        -50.54 -20.92,0 -41.97,2.14 -62.94,6.49 -80.37,16.64 -149.43,63.59 -194.47,132.18 -24.73,37.63 -40.53,
        79.33 -47.07,122.57 -0.64,0.11 -1.28,0.16 -1.92,0.29 -127.62,26.44 -236.95,101.2 -307.84,210.53 -69.8,
        107.63 -93.21,235.44 -65.9,359.89 26.63,121.46 130.01,273.46 294.04,320.21 113.48,32.32 292.49,25.56 503.14,
        -188.17 44.26,-30.77 88.73,-10.87 113.88,16.35 34.3,37.14 48.39,101.67 -14.89,171.45 l -2.49,2.85 c -164.7,
        197.37 -394.77,271.63 -631.4,203.69 -236.93,-68.03 -410.28,-259.87 -441.62,-488.7 -6.87,-50.2 -53.08,
        -85.32 -103.35,-78.44 -50.2,6.87 -85.32,53.14 -78.44,103.35 41.19,300.79 266.02,552.07 572.76,640.16 304.5,
        87.4 611.56,-10.18 821.76,-261.08 134.96,-150.15 101.22,-321.67 12.47,-417.78 -98.66,-106.82 -252.24,
        -121.06 -365.16,-33.92 l -9.74,8.69 c -82.72,85.08 -206.51,179.31 -326.64,145.07 -86.55,-24.67 -149.67,
        -112.72 -165.08,-183.04 z m -465.18,661.09 c 384.63,384.57 1010.35,384.55 1394.88,0 35.8,-35.82 93.95,
        -35.82 129.74,0 35.84,35.84 35.84,93.92 0,129.76 -456.06,456.05 -1198.21,456.1 -1654.36,-0.01 -281.27,
        -281.28 -353.04,-676.86 -326.43,-953.28 l 0.54,-4.39 c 8.24,-56.79 -4.91,-100.21 -38.04,-125.57 -29.32,
        -22.43 -71.57,-27.73 -105.08,-13.24 -33.42,14.44 -53.53,46.41 -58.08,90.9 -15.21,180.15 4.32,318.21 40.77,
        482.59 10.98,49.47 -20.25,98.46 -69.71,109.43 -49.55,10.94 -98.47,-20.24 -109.445,-69.72 -39.063,
        -176.21 -61.574,-335.09 -44.305,-539.3 11.469,-112.81 72.66,-201.15 167.95,-242.34 35.73,-15.45 74.28,
        -22.99 112.81,-22.99 62.99,0 125.97,20.17 176.64,58.97 85.97,65.84 125.4,173.34 108.42,295.25 -22.09,
        234.68 38.24,568.46 273.7,803.94 z m 1601.9,-154.07 c -43.19,-26.53 -56.67,-83.04 -30.15,-126.21 56.25,
        -91.55 105.64,-271.08 110.61,-364.43 2.6,-48.95 43.1,-86.89 91.53,-86.89 1.65,0 3.29,0.04 4.95,0.13 50.6,
        2.68 89.44,45.88 86.75,96.48 -6.36,119.99 -63.14,329.77 -137.49,450.78 -26.54,43.15 -83.03,56.64 -126.2,
        30.14 z m -77.28,-1370.54 c 35.84,35.84 35.84,93.92 0,129.76 -35.79,35.82 -93.94,35.82 -129.74,0 -384.53,
        -384.55 -1010.25,-384.58 -1394.88,0 -35.84,35.82 -93.94,35.83 -129.74,-0.01 -35.84,-35.83 -35.84,-93.92 0,
        -129.75 228.05,-228.05 527.63,-342.07 827.18,-342.07 299.58,0 599.13,114.02 827.18,342.07 z m 527.12,
        1153.25 c 10.66,0 21.5,1.87 32.09,5.82 47.47,17.75 71.57,70.61 53.83,118.08 -138.09,369.48 -265.68,
        516.44 -384.56,635.31 -590.23,590.26 -1550.69,590.26 -2140.93,0 -112.29,-112.28 -205.61,-240.26 -277.4,
        -380.39 -23.11,-45.1 -5.28,-100.39 39.81,-123.49 45.04,-23.09 100.37,-5.28 123.49,39.82 63.08,123.09 145.1,
        235.57 243.84,334.3 518.74,518.71 1362.72,518.71 1881.45,0 82.32,-82.32 206.71,-206.72 342.4,-569.8 13.8,
        -36.88 48.77,-59.65 85.98,-59.65 z m 144.47,-281.32 c -1,50.68 -42.42,90.21 -93.54,89.93 -50.64,-1 -90.92,
        -42.88 -89.91,-93.53 7.19,-365.31 -131.11,-708.75 -389.4,-967.05 -350.8,-350.84 -863.29,-477.09 -1337.42,
        -329.43 -48.48,15.07 -99.84,-11.96 -114.89,-60.34 -15.06,-48.38 11.96,-99.81 60.32,-114.87 149.14,-46.43 301.5,
        -69.04 452.48,-69.04 395.2,0.03 780.43,155.09 1069.25,443.92 293.93,293.94 451.29,684.74 443.11,
        1100.41 z M 1286.56,4483.16 c 165.51,165.5 359.04,292.12 575.25,376.33 47.22,18.39 70.58,71.57 52.19,
        118.78 -18.41,47.23 -71.5,70.64 -118.81,52.2 C 1555.2,4937 1340.41,4796.5 1156.82,4612.93 798.758,
        4254.85 605.559,3779.83 612.816,3273.43 c 0.739,-50.21 41.664,-89.35 91.727,-89.35 0.445,0 0.895,0 1.344,
        0 50.668,0 91.144,41.32 90.426,91.98 -6.559,456.4 167.554,884.4 490.247,1207.1 z m 1254.32,672.61 c -51.21,
        2.04 -93.25,-37.61 -95.13,-88.24 -1.91,-50.64 37.59,-93.23 88.23,-95.14 423.04,-15.92 821.02,-189.66 1120.59,
        -489.23 652.85,-652.86 652.85,-1715.14 0,-2367.99 -35.83,-35.84 -35.83,-93.93 0,-129.76 17.9,-17.91 41.4,
        -26.87 64.88,-26.87 23.47,0 46.97,8.96 64.86,26.87 724.41,724.41 724.41,1903.09 0,2627.52 -332.39,332.39 -774,
        525.17 -1243.43,542.84 z M 978.406,4699.58 c 23.474,0 46.974,8.96 64.864,26.87 518.83,518.8 1279.77,
        715.27 1985.68,512.84 86.91,-24.93 172.88,-56.01 255.47,-92.35 46.41,-20.44 100.53,0.65 120.94,47.02 20.4,
        46.38 -0.65,100.52 -47.02,120.93 -90.16,39.67 -183.95,73.57 -278.79,100.79 -770.08,220.85 -1600.06,
        6.48 -2166.019,-559.47 -35.84,-35.83 -35.84,-93.92 0,-129.76 17.922,-17.91 41.399,-26.87 64.875,
        -26.87 z M 4543.31,3706.85 c -7.23,-1.73 -14.47,-2.57 -21.59,-2.57 -41.42,0 -78.99,28.22 -89.13,
        70.25 -86.78,359.7 -271.69,688.87 -534.73,951.92 -71.43,71.44 -148.56,137.9 -229.22,197.55 -40.74,
        30.13 -49.34,87.59 -19.22,128.32 30.11,40.74 87.56,49.36 128.31,19.23 87.96,-65.05 172.05,-137.5 249.89,
        -215.35 286.94,-286.95 488.65,-646.1 583.36,-1038.64 11.87,-49.25 -18.41,-98.82 -67.67,-110.71"
            style="fill:#3b7fca;fill-opacity:1;fill-rule:nonzero;stroke:none"
            id="path30"/>
    </g>
  </g>
</svg>
